{
  "tasks": [
    {
      "id": 1,
      "text": "Go for a walk",
      "day": "Feb 5th at 2:30pm",
      "reminder": true
    },
    {
      "id": 2,
      "text": "Go biking",
      "day": "Feb 7th at 6:00am",
      "reminder": false
    },
    {
      "text": "Test Task",
      "day": "Today",
      "reminder": false,
      "id": 3
    }
  ]
}